LIN517 - Visualization Project - Bake Off Data!
…
library(gridExtra)

Attaching package: 'gridExtra'

The following object is masked from 'package:dplyr':

    combine

The Initial Dataset: {bakers}

bakers

# A tibble: 120 × 24
   series baker     star_baker technical_winner technical_top3 technical_bottom
    <dbl> <chr>          <int>            <int>          <int>            <int>
 1      1 Annetha            0                0              1                1
 2      1 David              0                0              1                3
 3      1 Edd                0                2              4                1
 4      1 Jasminder          0                0              2                2
 5      1 Jonathan           0                1              1                2
 6      1 Lea                0                0              0                1
 7      1 Louise             0                0              0                1
 8      1 Mark               0                0              0                0
 9      1 Miranda            0                2              4                1
10      1 Ruth               0                0              2                2
# … with 110 more rows, and 18 more variables: technical_highest <dbl>,
#   technical_lowest <dbl>, technical_median <dbl>, series_winner <int>,
#   series_runner_up <int>, total_episodes_appeared <dbl>,
#   first_date_appeared <date>, last_date_appeared <date>,
#   first_date_us <date>, last_date_us <date>, percent_episodes_appeared <dbl>,
#   percent_technical_top3 <dbl>, baker_full <chr>, age <dbl>,
#   occupation <chr>, hometown <chr>, baker_last <chr>, baker_first <chr>
…
I began by playing around with the data, seeing what parsed out sub-sets might be best-suited to my examination.
 There are what I ended up deciding to go with.

The Useful Data

This Dataset is a narrowed-down version of the original, listing only relevant data.

bakers |>
    select(series, baker, series_winner, technical_winner) ->
    bakerData

bakerData

# A tibble: 120 × 4
   series baker     series_winner technical_winner
    <dbl> <chr>             <int>            <int>
 1      1 Annetha               0                0
 2      1 David                 0                0
 3      1 Edd                   1                2
 4      1 Jasminder             0                0
 5      1 Jonathan              0                1
 6      1 Lea                   0                0
 7      1 Louise                0                0
 8      1 Mark                  0                0
 9      1 Miranda               0                2
10      1 Ruth                  0                0
# … with 110 more rows
…
